[
    {
        "id": 1,
        "name": "Stevo Lopata",
        "company": "123 Designes",
        "phone": "444-555-666"
    },
    {
        "id": 2,
        "name": "Marta Ašov",
        "company": "Hello Productions",
        "phone": "333-222-222"
    },
    {
        "id": 3,
        "name": "Mira Krompir",
        "company": "Traversy Media",
        "phone": "111-222-333"
    }
]